<svg xmlns="http://www.w3.org/2000/svg" width="16" height="16" viewBox="0 0 16 16">
  <path id="Icon_metro-filter" data-name="Icon metro-filter" d="M10.571,1.928c-4.418,0-8,1.119-8,2.5v1.5l6,6v5c0,.552.9,1,2,1s2-.448,2-1v-5l6-6v-1.5C18.571,3.047,14.989,1.928,10.571,1.928ZM4.045,4.1a6.8,6.8,0,0,1,1.52-.586,19.722,19.722,0,0,1,5.005-.583,19.722,19.722,0,0,1,5.005.583A6.806,6.806,0,0,1,17.1,4.1a1.739,1.739,0,0,1,.442.331,1.741,1.741,0,0,1-.442.331,6.806,6.806,0,0,1-1.52.586,19.722,19.722,0,0,1-5.005.583,19.722,19.722,0,0,1-5.005-.583,6.8,6.8,0,0,1-1.52-.586A1.741,1.741,0,0,1,3.6,4.428,1.741,1.741,0,0,1,4.045,4.1Z" transform="translate(-2.571 -1.928)" fill="#03acec"/>
</svg>
